<?xml version="1.0" encoding="utf-8"?>
<svg version="1.1" xmlns="http://www.w3.org/2000/svg" xmlns:xlink="http://www.w3.org/1999/xlink" x="0px" y="0px"
	 viewBox="0 0 8 14.2" style="enable-background:new 0 0 8 14.2;" xml:space="preserve">
<style type="text/css">
	.st0{fill-rule:evenodd;clip-rule:evenodd;fill:#313131;}
</style>
<path class="st0" d="M0.3,1.6c-0.8-0.8,0.5-2.2,1.3-1.3l6.1,6.1c0.4,0.3,0.4,1,0,1.3L1.6,14c-0.8,0.8-2.2-0.5-1.3-1.3l5.4-5.5
	C5.7,7.1,0.3,1.6,0.3,1.6z"/>
</svg>
